69234 991261 525
879105 895320 445
195242 44159 383
627898 864719 525
344062 472751 449
512174 294246 470
153048 405651 443
441186 229198 449
205290 374179 443
831805 578441 509
978966 567182 525
151233 57409 375
865231 359775 525
597195 752851 509
774584 24001 509
6490 565021 470
958710 493786 525
678699 521346 509
422620 316714 449
530554 306194 470
586918 502218 470
402600 647681 509
726693 333865 509
462855 376155 449
203741 13279 383
90144 776714 509
617288 990818 525
950841 289582 525
697456 818811 504
390667 272062 441
277136 911260 525
28511 325455 443
287448 450595 449
815369 853428 525
958647 713213 525
60654 945957 525
301881 517688 470
764970 306543 509
581245 580329 266
603388 726976 509
90738 32839 351
714430 54564 509
62357 49162 340
894327 706632 525
685463 525619 509
181558 814186 509
351396 492603 449
854959 355739 525
280364 545272 470
948420 505042 525
489156 261575 449
610298 813828 509
141754 600178 470
469108 186680 449
530970 582324 452
179583 765593 509
252113 534075 470
922148 173647 525
208024 202300 373
372737 747200 509
860802 487467 525
17209 418938 449
221412 397136 443
599020 974579 525
942358 605726 525
329843 969053 525
812868 849259 525
214262 896202 525
254759 44852 443
71901 964858 525
920872 747140 525
356590 702268 509
161206 980676 525
645243 327263 509
609288 899784 525
614939 927873 525
860019 225609 525
772058 166891 509
574198 39357 470
858551 768228 525
244623 276945 407
902582 17184 525
33140 185332 383
681812 723809 504
31386 63326 340
694577 315100 509
653897 766284 504
181202 578768 470
809866 723469 468
661704 970599 525
788705 450495 509
176311 762253 509
132357 310685 443
461433 547383 470
124363 818813 509
417868 979983 525
80516 470234 449
184564 733728 509
907684 597257 525
846875 60613 525
590060 293773 470
154659 361516 443
620029 422987 470
249272 540461 470
215893 661569 509
4150 334076 443
732374 275038 509
676946 585180 509
783928 66087 509
411524 795134 509
630145 182917 509
133512 655535 509
660150 210001 509
541067 104620 470
173998 381830 443
624593 650891 509
627669 434174 509
752156 934901 525
825377 824563 313
781920 622268 509
168843 770690 509
697461 670729 442
524481 763166 509
782316 118111 509
921753 307037 525
78680 939121 525
164015 738560 509
110534 9237 354
945607 353460 525
508893 233912 449
566857 36387 470
302981 72628 443
617727 804901 509
394471 872086 525
36273 102839 351
817594 423977 509
104961 717900 509
410784 266458 449
160137 707862 509
697429 153108 509
956632 341377 525
412115 658921 509
374649 750476 509
240268 301948 407
637602 816763 504
291529 62413 443
800646 613233 509
892679 598283 525
751069 62302 509
846513 202973 525
341540 705054 509
816297 811422 375
306844 679315 509
931076 151408 525
769436 445383 509
563767 283308 470
766655 440037 509
959945 904752 507
449906 14896 449
380341 398841 436
947991 397577 525
678766 799066 504
151470 420490 449
165206 114096 383
821971 609834 509
485269 520787 470
734539 530947 509
439318 438084 400
584814 303946 470
151139 37254 375
123590 260272 443
349037 138014 443
952783 510888 525
563098 856589 525
164350 473547 449
386942 190780 443
195196 363762 443
818057 472157 509
631657 606710 509
459740 744265 509
253170 759765 509
375286 161942 443
664314 223639 509
828434 853781 525
112208 273384 443
192768 864592 525
149387 451065 449
12796 760391 509
681351 332637 509
537687 412552 470
186931 568193 470
247570 373992 441
227530 123887 386
600403 190638 470
227484 549906 470
611856 27521 470
290800 910366 525
677256 545585 509
340313 973990 525
696316 92387 509
523472 629909 509
328723 832916 509
826625 556711 509
494741 507887 426
437958 497600 444
364458 27985 443
99154 292289 443
449743 668946 509
477029 557964 470
32531 379444 443
11215 316436 443
766143 798009 468
242034 41049 443
28193 496462 449
140855 244829 443
104965 565928 470
669274 493563 509
249921 672467 509
160506 525497 470
205175 182467 360
738902 917344 525
739642 723034 424
173924 253467 443
836701 232543 509
538191 853590 525
422095 414069 387
677437 315994 509
882285 422043 525
86414 939695 525
267182 528820 470
232780 726138 509
404539 475204 449
859679 256805 525
276557 993891 525
150949 510402 449
607678 273255 470
405272 241143 441
415252 237846 449
408126 535583 470
584372 974061 525
539725 748316 509
205682 616450 470
260016 379660 441
565561 236368 470
169872 473645 449
287076 928282 525
835795 780285 468
171601 360279 443
497089 842670 525
97842 141917 354
